INDEX VERSION 1.127+C:\EclipseJSF\javaee\.metadata\.plugins\org.eclipse.jdt.core
4132615955.index
1820206670.index
448866522.index
3244730447.index
3203898674.index
2292018109.index
570669657.index
3453885261.index
2323909541.index
4207604994.index
3745834857.index
1194728837.index
3132187912.index
2510011023.index
3397592346.index
1462640808.index
3315738250.index
1973916745.index
3845220941.index
2814002604.index
788853223.index
1521997219.index
220009258.index
560672595.index
3352260239.index
1401268237.index
3753900101.index
374499006.index
4289788003.index
877230417.index
3142819831.index
2748583111.index
1218821571.index
4201346528.index
2910810939.index
14276872.index
459972276.index
1870270142.index
2897370550.index
4255573620.index
2811378335.index
3278702597.index
3740112935.index
2273360829.index
83019787.index
2893332526.index
3595784610.index
3433629657.index
1551215881.index
2968619249.index
1678305246.index
898692999.index
1208543618.index
2484561156.index
2924749145.index
3833016799.index
3805447787.index
3303698155.index
3388145333.index
3801857825.index
2932689593.index
2402467219.index
3689300518.index
2254813375.index
3660465804.index
3302556305.index
1367712630.index
2684377505.index
3893065496.index
142112426.index
3709220784.index
3514762833.index
2818125816.index
3661790104.index
2423550027.index
725029217.index
4011602904.index
3927942281.index
3534282888.index
751497977.index
838186017.index
3908243270.index
740248607.index
4184346829.index
83840065.index
2965232139.index
1223173539.index
1103337498.index
2865311356.index
1752741496.index
622169406.index
2401818273.index
3847945815.index
180364745.index
3122723306.index
457095434.index
2089962758.index
1309471438.index
1344529094.index
3967144677.index
4264856358.index
2418924116.index
3165366119.index
472524935.index
3671075610.index
2215013632.index
2343573866.index
1576973772.index
2369633534.index
3223661676.index
2822466203.index
2378878092.index
2434461398.index
826480208.index
2423382091.index
3786166401.index
3709179026.index
3622408782.index
1331851189.index
2343274678.index
248754415.index
3017715056.index
928267556.index
3145747798.index
2255183045.index
2943427293.index
1768027729.index
1512370568.index
3842270583.index
599658767.index
1079565364.index
3079585793.index
611684650.index
1442733142.index
1344542412.index
3039874673.index
1520032718.index
3596994835.index
2233843614.index
3660992621.index
1040524136.index
1768625428.index
615069460.index
3787483344.index
145749769.index
3473998426.index
1074115733.index
2698259554.index
3052003124.index
85237302.index
2234693697.index
4101598650.index
1903553937.index
4290473692.index
124083747.index
3803790034.index
3528951057.index
3921152112.index
2503204710.index
551557053.index
4072331241.index
1874886471.index
2383302418.index
632869756.index
1008523774.index
1179565742.index
1349172351.index
3431551424.index
606463882.index
3956756365.index
1637614898.index
399883282.index
660427916.index
3753018386.index
1218018066.index
2991165364.index
1064717181.index
246949356.index
2689565584.index
1234954908.index
2583245329.index
3956556399.index
1537063991.index
4083728098.index
1795509759.index
3934897095.index
1077168127.index
1082326956.index
2752100775.index
4104022335.index
2277692468.index
1387532972.index
2039106180.index
3267987289.index
1596189418.index
690153366.index
972558743.index
4217465192.index
3468604306.index
3662497953.index
102164557.index
3742102643.index
4158459952.index
404414497.index
93292290.index
1908572185.index
711725258.index
1268507435.index
2355544527.index
291290964.index
451613897.index
1301443218.index
4155133544.index
2595257497.index
2641556063.index
1704035952.index
