<?xml version="1.0" encoding="UTF-8"?>
<session version="1.0">
<refactoring comment="Delete resource &apos;pedidosJTA&apos;" deleteContents="true" description="Delete resource &apos;pedidosJTA&apos;" element1="/pedidosJTA" flags="7" id="org.eclipse.ltk.core.refactoring.delete.resources" resources="1" stamp="1478880703172"/>
</session>